{"failedCount":0,"prefixedPath":"src\/test\/java\/usuarios\/reqResTests.feature","packageQualifiedName":"src.test.java.usuarios.reqResTests","loopIndex":-1,"relativePath":"src\/test\/java\/usuarios\/reqResTests.feature","scenarioResults":[{"sectionIndex":0,"stepResults":[{"result":{"nanos":1752900,"millis":1.7529,"status":"passed"},"step":{"background":true,"line":6,"prefix":"*","index":0,"text":"url baseUrl"}},{"result":{"nanos":888300,"millis":0.8883,"status":"passed"},"step":{"background":true,"line":7,"prefix":"*","index":1,"text":"header Content-Type = 'application\/json'"}},{"result":{"nanos":1116800,"millis":1.1168,"status":"passed"},"step":{"line":11,"prefix":"Given","index":0,"text":"path '\/users'"}},{"result":{"nanos":1852000,"millis":1.852,"status":"passed"},"step":{"line":12,"prefix":"And","index":1,"text":"param page = 2"}},{"result":{"nanos":893528600,"millis":893.5286,"status":"passed"},"step":{"line":13,"prefix":"When","index":2,"text":"method GET"},"stepLog":"03:06:22.262 request:\n1 > GET https:\/\/reqres.in\/api\/users?page=2\n1 > Content-Type: application\/json\n1 > Host: reqres.in\n1 > Connection: Keep-Alive\n1 > User-Agent: Apache-HttpClient\/4.5.13 (Java\/17.0.12)\n1 > Accept-Encoding: gzip,deflate\n\n\n03:06:22.771 response time in milliseconds: 476\n1 < 200\n1 < Date: Mon, 23 Sep 2024 08:06:23 GMT\n1 < Content-Type: application\/json; charset=utf-8\n1 < Transfer-Encoding: chunked\n1 < Connection: keep-alive\n1 < Report-To: {\"group\":\"heroku-nel\",\"max_age\":3600,\"endpoints\":[{\"url\":\"https:\/\/nel.heroku.com\/reports?ts=1726902685&sid=c4c9725f-1ab0-44d8-820f-430df2718e11&s=I2ioh%2FShnnth%2BauQDxOZ%2FTWAH3CyGn0RdhLWdCI6rGg%3D\"}]}\n1 < Reporting-Endpoints: heroku-nel=https:\/\/nel.heroku.com\/reports?ts=1726902685&sid=c4c9725f-1ab0-44d8-820f-430df2718e11&s=I2ioh%2FShnnth%2BauQDxOZ%2FTWAH3CyGn0RdhLWdCI6rGg%3D\n1 < Nel: {\"report_to\":\"heroku-nel\",\"max_age\":3600,\"success_fraction\":0.005,\"failure_fraction\":0.05,\"response_headers\":[\"Via\"]}\n1 < X-Powered-By: Express\n1 < Access-Control-Allow-Origin: *\n1 < Etag: W\/\"406-ut0vzoCuidvyMf8arZpMpJ6ZRDw\"\n1 < Via: 1.1 vegur\n1 < Cache-Control: max-age=14400\n1 < CF-Cache-Status: HIT\n1 < Age: 5492\n1 < Vary: Accept-Encoding\n1 < Server: cloudflare\n1 < CF-RAY: 8c7908fb4bf98bff-MIA\n{\n  \"page\": 2,\n  \"per_page\": 6,\n  \"total\": 12,\n  \"total_pages\": 2,\n  \"data\": [\n    {\n      \"id\": 7,\n      \"email\": \"michael.lawson@reqres.in\",\n      \"first_name\": \"Michael\",\n      \"last_name\": \"Lawson\",\n      \"avatar\": \"https:\/\/reqres.in\/img\/faces\/7-image.jpg\"\n    },\n    {\n      \"id\": 8,\n      \"email\": \"lindsay.ferguson@reqres.in\",\n      \"first_name\": \"Lindsay\",\n      \"last_name\": \"Ferguson\",\n      \"avatar\": \"https:\/\/reqres.in\/img\/faces\/8-image.jpg\"\n    },\n    {\n      \"id\": 9,\n      \"email\": \"tobias.funke@reqres.in\",\n      \"first_name\": \"Tobias\",\n      \"last_name\": \"Funke\",\n      \"avatar\": \"https:\/\/reqres.in\/img\/faces\/9-image.jpg\"\n    },\n    {\n      \"id\": 10,\n      \"email\": \"byron.fields@reqres.in\",\n      \"first_name\": \"Byron\",\n      \"last_name\": \"Fields\",\n      \"avatar\": \"https:\/\/reqres.in\/img\/faces\/10-image.jpg\"\n    },\n    {\n      \"id\": 11,\n      \"email\": \"george.edwards@reqres.in\",\n      \"first_name\": \"George\",\n      \"last_name\": \"Edwards\",\n      \"avatar\": \"https:\/\/reqres.in\/img\/faces\/11-image.jpg\"\n    },\n    {\n      \"id\": 12,\n      \"email\": \"rachel.howell@reqres.in\",\n      \"first_name\": \"Rachel\",\n      \"last_name\": \"Howell\",\n      \"avatar\": \"https:\/\/reqres.in\/img\/faces\/12-image.jpg\"\n    }\n  ],\n  \"support\": {\n    \"url\": \"https:\/\/reqres.in\/#support-heading\",\n    \"text\": \"To keep ReqRes free, contributions towards server costs are appreciated!\"\n  }\n}\n\n\n"},{"result":{"nanos":18300,"millis":0.0183,"status":"passed"},"step":{"line":14,"prefix":"Then","index":3,"text":"status 200"}},{"result":{"nanos":28781000,"millis":28.781,"status":"passed"},"step":{"comments":["# Validación de la estructura principal"],"line":16,"prefix":"And","index":4,"text":"match response == { page: 2, per_page: 6, total: 12, total_pages: 2, data: '#[]', support: { url: '#string', text: '#string' } }"}}],"line":10,"description":"","durationMillis":927.9379,"failed":false,"tags":["GET","E2E"],"executorName":"main","name":"Verificar el listado de usuarios (GET)","startTime":1727078781690,"refId":"[1:10]","endTime":1727078782803,"exampleIndex":-1},{"sectionIndex":1,"stepResults":[{"result":{"nanos":915700,"millis":0.9157,"status":"passed"},"step":{"background":true,"line":6,"prefix":"*","index":0,"text":"url baseUrl"}},{"result":{"nanos":481300,"millis":0.4813,"status":"passed"},"step":{"background":true,"line":7,"prefix":"*","index":1,"text":"header Content-Type = 'application\/json'"}},{"result":{"nanos":821000,"millis":0.821,"status":"passed"},"step":{"line":21,"prefix":"Given","index":0,"text":"path 'users'"}},{"result":{"nanos":11875600,"millis":11.8756,"status":"passed"},"step":{"line":22,"prefix":"And","index":1,"text":"request read('classpath:data\/user.json')"}},{"result":{"nanos":499201800,"millis":499.2018,"status":"passed"},"step":{"line":23,"prefix":"When","index":2,"text":"method POST"},"stepLog":"03:06:22.875 request:\n1 > POST https:\/\/reqres.in\/api\/users\n1 > Content-Type: application\/json; charset=UTF-8\n1 > Content-Length: 33\n1 > Host: reqres.in\n1 > Connection: Keep-Alive\n1 > User-Agent: Apache-HttpClient\/4.5.13 (Java\/17.0.12)\n1 > Accept-Encoding: gzip,deflate\n{\n  \"name\": \"John\",\n  \"job\": \"Developer\"\n}\n\n\n03:06:23.328 response time in milliseconds: 452\n1 < 201\n1 < Date: Mon, 23 Sep 2024 08:06:23 GMT\n1 < Content-Type: application\/json; charset=utf-8\n1 < Content-Length: 83\n1 < Connection: keep-alive\n1 < Report-To: {\"group\":\"heroku-nel\",\"max_age\":3600,\"endpoints\":[{\"url\":\"https:\/\/nel.heroku.com\/reports?ts=1727078783&sid=c4c9725f-1ab0-44d8-820f-430df2718e11&s=iYBSOSEPl5FCbAiueav45rO5j1MICJwPKkPspr%2FkQBA%3D\"}]}\n1 < Reporting-Endpoints: heroku-nel=https:\/\/nel.heroku.com\/reports?ts=1727078783&sid=c4c9725f-1ab0-44d8-820f-430df2718e11&s=iYBSOSEPl5FCbAiueav45rO5j1MICJwPKkPspr%2FkQBA%3D\n1 < Nel: {\"report_to\":\"heroku-nel\",\"max_age\":3600,\"success_fraction\":0.005,\"failure_fraction\":0.05,\"response_headers\":[\"Via\"]}\n1 < X-Powered-By: Express\n1 < Access-Control-Allow-Origin: *\n1 < Etag: W\/\"53-qF63qPsnj58R45QiISjjXLwjBMA\"\n1 < Via: 1.1 vegur\n1 < CF-Cache-Status: DYNAMIC\n1 < Server: cloudflare\n1 < CF-RAY: 8c7908fd8bca742e-MIA\n{\n  \"name\": \"John\",\n  \"job\": \"Developer\",\n  \"id\": \"737\",\n  \"createdAt\": \"2024-09-23T08:06:23.796Z\"\n}\n\n\n"},{"result":{"nanos":28700,"millis":0.0287,"status":"passed"},"step":{"line":24,"prefix":"Then","index":3,"text":"status 201"}},{"result":{"nanos":9063800,"millis":9.0638,"status":"passed"},"step":{"line":25,"prefix":"And","index":4,"text":"match response contains read('classpath:data\/response.json')"}}],"line":20,"description":"","durationMillis":522.3879,"failed":false,"tags":["POST","E2E"],"executorName":"main","name":"Crear un nuevo usuario (POST)","startTime":1727078782812,"refId":"[2:20]","endTime":1727078783340,"exampleIndex":-1},{"sectionIndex":2,"stepResults":[{"result":{"nanos":453300,"millis":0.4533,"status":"passed"},"step":{"background":true,"line":6,"prefix":"*","index":0,"text":"url baseUrl"}},{"result":{"nanos":488300,"millis":0.4883,"status":"passed"},"step":{"background":true,"line":7,"prefix":"*","index":1,"text":"header Content-Type = 'application\/json'"}},{"result":{"nanos":1031600,"millis":1.0316,"status":"passed"},"step":{"line":29,"prefix":"Given","index":0,"text":"path 'users\/2'"}},{"result":{"nanos":1959000,"millis":1.959,"status":"passed"},"step":{"line":30,"prefix":"And","index":1,"text":"request read('classpath:data\/update-user.json')"}},{"result":{"nanos":483756500,"millis":483.7565,"status":"passed"},"step":{"line":31,"prefix":"When","index":2,"text":"method PUT"},"stepLog":"03:06:23.379 request:\n1 > PUT https:\/\/reqres.in\/api\/users\/2\n1 > Content-Type: application\/json; charset=UTF-8\n1 > Content-Length: 31\n1 > Host: reqres.in\n1 > Connection: Keep-Alive\n1 > User-Agent: Apache-HttpClient\/4.5.13 (Java\/17.0.12)\n1 > Accept-Encoding: gzip,deflate\n{\n  \"name\": \"Jane\",\n  \"job\": \"Manager\"\n}\n\n\n03:06:23.860 response time in milliseconds: 481\n1 < 200\n1 < Date: Mon, 23 Sep 2024 08:06:24 GMT\n1 < Content-Type: application\/json; charset=utf-8\n1 < Transfer-Encoding: chunked\n1 < Connection: keep-alive\n1 < Report-To: {\"group\":\"heroku-nel\",\"max_age\":3600,\"endpoints\":[{\"url\":\"https:\/\/nel.heroku.com\/reports?ts=1727078784&sid=c4c9725f-1ab0-44d8-820f-430df2718e11&s=Mk1UqssaVVfWiB3V6QHqjlCpnPC3SQpkqmwJFhVLj4w%3D\"}]}\n1 < Reporting-Endpoints: heroku-nel=https:\/\/nel.heroku.com\/reports?ts=1727078784&sid=c4c9725f-1ab0-44d8-820f-430df2718e11&s=Mk1UqssaVVfWiB3V6QHqjlCpnPC3SQpkqmwJFhVLj4w%3D\n1 < Nel: {\"report_to\":\"heroku-nel\",\"max_age\":3600,\"success_fraction\":0.005,\"failure_fraction\":0.05,\"response_headers\":[\"Via\"]}\n1 < X-Powered-By: Express\n1 < Access-Control-Allow-Origin: *\n1 < Etag: W\/\"46-UUMpdBOBnHGG10KNOpaFcRPawas\"\n1 < Via: 1.1 vegur\n1 < CF-Cache-Status: DYNAMIC\n1 < Vary: Accept-Encoding\n1 < Server: cloudflare\n1 < CF-RAY: 8c790900cb0ca563-MIA\n{\n  \"name\": \"Jane\",\n  \"job\": \"Manager\",\n  \"updatedAt\": \"2024-09-23T08:06:24.321Z\"\n}\n\n\n"},{"result":{"nanos":12800,"millis":0.0128,"status":"passed"},"step":{"line":32,"prefix":"Then","index":3,"text":"status 200"}},{"result":{"nanos":2216200,"millis":2.2162,"status":"passed"},"step":{"line":33,"prefix":"And","index":4,"text":"match response contains read('classpath:data\/expected-put-response.json')"}}],"line":28,"description":"","durationMillis":489.9177,"failed":false,"tags":["E2E","PUT"],"executorName":"main","name":"Actualizar un usuario existente (PUT)","startTime":1727078783371,"refId":"[3:28]","endTime":1727078783864,"exampleIndex":-1},{"sectionIndex":3,"stepResults":[{"result":{"nanos":202800,"millis":0.2028,"status":"passed"},"step":{"background":true,"line":6,"prefix":"*","index":0,"text":"url baseUrl"}},{"result":{"nanos":261700,"millis":0.2617,"status":"passed"},"step":{"background":true,"line":7,"prefix":"*","index":1,"text":"header Content-Type = 'application\/json'"}},{"result":{"nanos":145100,"millis":0.1451,"status":"passed"},"step":{"line":37,"prefix":"Given","index":0,"text":"path 'users\/2'"}},{"result":{"nanos":450934000,"millis":450.934,"status":"passed"},"step":{"line":38,"prefix":"When","index":1,"text":"method DELETE"},"stepLog":"03:06:23.873 request:\n1 > DELETE https:\/\/reqres.in\/api\/users\/2\n1 > Content-Type: application\/json\n1 > Host: reqres.in\n1 > Connection: Keep-Alive\n1 > User-Agent: Apache-HttpClient\/4.5.13 (Java\/17.0.12)\n1 > Accept-Encoding: gzip,deflate\n\n\n03:06:24.322 response time in milliseconds: 448\n1 < 204\n1 < Date: Mon, 23 Sep 2024 08:06:24 GMT\n1 < Content-Length: 0\n1 < Connection: keep-alive\n1 < Report-To: {\"group\":\"heroku-nel\",\"max_age\":3600,\"endpoints\":[{\"url\":\"https:\/\/nel.heroku.com\/reports?ts=1727078784&sid=c4c9725f-1ab0-44d8-820f-430df2718e11&s=Mk1UqssaVVfWiB3V6QHqjlCpnPC3SQpkqmwJFhVLj4w%3D\"}]}\n1 < Reporting-Endpoints: heroku-nel=https:\/\/nel.heroku.com\/reports?ts=1727078784&sid=c4c9725f-1ab0-44d8-820f-430df2718e11&s=Mk1UqssaVVfWiB3V6QHqjlCpnPC3SQpkqmwJFhVLj4w%3D\n1 < Nel: {\"report_to\":\"heroku-nel\",\"max_age\":3600,\"success_fraction\":0.005,\"failure_fraction\":0.05,\"response_headers\":[\"Via\"]}\n1 < X-Powered-By: Express\n1 < Access-Control-Allow-Origin: *\n1 < Etag: W\/\"2-vyGp6PvFo4RvsFtPoIWeCReyIC8\"\n1 < Via: 1.1 vegur\n1 < CF-Cache-Status: DYNAMIC\n1 < Server: cloudflare\n1 < CF-RAY: 8c790903b9975c7d-MIA\n\n\n"},{"result":{"nanos":15100,"millis":0.0151,"status":"passed"},"step":{"line":39,"prefix":"Then","index":2,"text":"status 204"}}],"line":36,"description":"","durationMillis":451.5587,"failed":false,"tags":["DELETE","E2E"],"executorName":"main","name":"Eliminar un usuario (DELETE)","startTime":1727078783869,"refId":"[4:36]","endTime":1727078784323,"exampleIndex":-1}],"callDepth":0,"name":"Verificación de Endpoints en ReqRes","description":"","resultDate":"2024-09-23 03:06:24 a. m.","durationMillis":2391.8022,"passedCount":4}