{"failedCount":0,"prefixedPath":"src\/test\/java\/usuarios\/reqResTests.feature","packageQualifiedName":"src.test.java.usuarios.reqResTests","loopIndex":-1,"relativePath":"src\/test\/java\/usuarios\/reqResTests.feature","scenarioResults":[{"sectionIndex":0,"stepResults":[{"result":{"nanos":1593000,"millis":1.593,"status":"passed"},"step":{"background":true,"line":4,"prefix":"*","index":0,"text":"url baseUrl"}},{"result":{"nanos":656700,"millis":0.6567,"status":"passed"},"step":{"line":7,"prefix":"Given","index":0,"text":"path '\/users'"}},{"result":{"nanos":1578900,"millis":1.5789,"status":"passed"},"step":{"line":8,"prefix":"And","index":1,"text":"param page = 2"}},{"result":{"nanos":896815400,"millis":896.8154,"status":"passed"},"step":{"line":9,"prefix":"When","index":2,"text":"method GET"},"stepLog":"02:40:13.399 request:\n1 > GET https:\/\/reqres.in\/api\/users?page=2\n1 > Host: reqres.in\n1 > Connection: Keep-Alive\n1 > User-Agent: Apache-HttpClient\/4.5.13 (Java\/17.0.12)\n1 > Accept-Encoding: gzip,deflate\n\n\n02:40:13.868 response time in milliseconds: 446\n1 < 200\n1 < Date: Mon, 23 Sep 2024 07:40:14 GMT\n1 < Content-Type: application\/json; charset=utf-8\n1 < Transfer-Encoding: chunked\n1 < Connection: keep-alive\n1 < Report-To: {\"group\":\"heroku-nel\",\"max_age\":3600,\"endpoints\":[{\"url\":\"https:\/\/nel.heroku.com\/reports?ts=1726902685&sid=c4c9725f-1ab0-44d8-820f-430df2718e11&s=I2ioh%2FShnnth%2BauQDxOZ%2FTWAH3CyGn0RdhLWdCI6rGg%3D\"}]}\n1 < Reporting-Endpoints: heroku-nel=https:\/\/nel.heroku.com\/reports?ts=1726902685&sid=c4c9725f-1ab0-44d8-820f-430df2718e11&s=I2ioh%2FShnnth%2BauQDxOZ%2FTWAH3CyGn0RdhLWdCI6rGg%3D\n1 < Nel: {\"report_to\":\"heroku-nel\",\"max_age\":3600,\"success_fraction\":0.005,\"failure_fraction\":0.05,\"response_headers\":[\"Via\"]}\n1 < X-Powered-By: Express\n1 < Access-Control-Allow-Origin: *\n1 < Etag: W\/\"406-ut0vzoCuidvyMf8arZpMpJ6ZRDw\"\n1 < Via: 1.1 vegur\n1 < Cache-Control: max-age=14400\n1 < CF-Cache-Status: HIT\n1 < Age: 3923\n1 < Vary: Accept-Encoding\n1 < Server: cloudflare\n1 < CF-RAY: 8c78e2ada851a528-MIA\n{\n  \"page\": 2,\n  \"per_page\": 6,\n  \"total\": 12,\n  \"total_pages\": 2,\n  \"data\": [\n    {\n      \"id\": 7,\n      \"email\": \"michael.lawson@reqres.in\",\n      \"first_name\": \"Michael\",\n      \"last_name\": \"Lawson\",\n      \"avatar\": \"https:\/\/reqres.in\/img\/faces\/7-image.jpg\"\n    },\n    {\n      \"id\": 8,\n      \"email\": \"lindsay.ferguson@reqres.in\",\n      \"first_name\": \"Lindsay\",\n      \"last_name\": \"Ferguson\",\n      \"avatar\": \"https:\/\/reqres.in\/img\/faces\/8-image.jpg\"\n    },\n    {\n      \"id\": 9,\n      \"email\": \"tobias.funke@reqres.in\",\n      \"first_name\": \"Tobias\",\n      \"last_name\": \"Funke\",\n      \"avatar\": \"https:\/\/reqres.in\/img\/faces\/9-image.jpg\"\n    },\n    {\n      \"id\": 10,\n      \"email\": \"byron.fields@reqres.in\",\n      \"first_name\": \"Byron\",\n      \"last_name\": \"Fields\",\n      \"avatar\": \"https:\/\/reqres.in\/img\/faces\/10-image.jpg\"\n    },\n    {\n      \"id\": 11,\n      \"email\": \"george.edwards@reqres.in\",\n      \"first_name\": \"George\",\n      \"last_name\": \"Edwards\",\n      \"avatar\": \"https:\/\/reqres.in\/img\/faces\/11-image.jpg\"\n    },\n    {\n      \"id\": 12,\n      \"email\": \"rachel.howell@reqres.in\",\n      \"first_name\": \"Rachel\",\n      \"last_name\": \"Howell\",\n      \"avatar\": \"https:\/\/reqres.in\/img\/faces\/12-image.jpg\"\n    }\n  ],\n  \"support\": {\n    \"url\": \"https:\/\/reqres.in\/#support-heading\",\n    \"text\": \"To keep ReqRes free, contributions towards server costs are appreciated!\"\n  }\n}\n\n\n"},{"result":{"nanos":19300,"millis":0.0193,"status":"passed"},"step":{"line":10,"prefix":"Then","index":3,"text":"status 200"}},{"result":{"nanos":20825700,"millis":20.8257,"status":"passed"},"step":{"line":11,"prefix":"And","index":4,"text":"match response.page == 2"}},{"result":{"nanos":3532900,"millis":3.5329,"status":"passed"},"step":{"line":12,"prefix":"And","index":5,"text":"match response.data[0].id != null"}}],"line":6,"description":"","durationMillis":925.0219,"failed":false,"tags":["GET"],"executorName":"main","name":"Verificar el listado de usuarios (GET)","startTime":1727077212806,"refId":"[1:6]","endTime":1727077213895,"exampleIndex":-1}],"callDepth":0,"name":"Verificación de Endpoints en ReqRes","description":"","resultDate":"2024-09-23 02:40:13 a. m.","durationMillis":925.0219,"passedCount":1}